<?xml version="1.0" encoding="UTF-8" standalone="no"?>
<!-- Created with Inkscape (http://www.inkscape.org/) -->

<svg
   width="48"
   height="48"
   version="1.1"
   viewBox="0 0 48 48"
   id="svg6"
   sodipodi:docname="icon.svg"
   inkscape:export-filename="iconBig.svg"
   inkscape:export-xdpi="1536"
   inkscape:export-ydpi="1536"
   inkscape:version="1.3.2 (091e20ef0f, 2023-11-25, custom)"
   xmlns:inkscape="http://www.inkscape.org/namespaces/inkscape"
   xmlns:sodipodi="http://sodipodi.sourceforge.net/DTD/sodipodi-0.dtd"
   xmlns="http://www.w3.org/2000/svg"
   xmlns:svg="http://www.w3.org/2000/svg">
  <defs
     id="defs6" />
  <sodipodi:namedview
     id="namedview6"
     pagecolor="#ffffff"
     bordercolor="#000000"
     borderopacity="0.25"
     inkscape:showpageshadow="2"
     inkscape:pageopacity="0.0"
     inkscape:pagecheckerboard="0"
     inkscape:deskcolor="#d1d1d1"
     inkscape:zoom="24.25"
     inkscape:cx="23.979381"
     inkscape:cy="24"
     inkscape:window-width="2560"
     inkscape:window-height="1368"
     inkscape:window-x="0"
     inkscape:window-y="0"
     inkscape:window-maximized="1"
     inkscape:current-layer="svg6" />
  <rect
     width="48"
     height="48"
     fill="#fff"
     id="rect1" />
  <g
     fill="none"
     stroke="#000"
     id="g6">
    <path
       d="m8 8c16 0 16 0 16 16s16 16 16 16"
       stroke-dasharray="1, 1"
       id="path1" />
    <g
       id="g5">
      <path
         d="m24 8v32"
         id="path2" />
      <g
         stroke-linejoin="round"
         stroke-width="1"
         id="g4">
        <rect
           x="22"
           y="22"
           width="4"
           height="4"
           id="rect2" />
        <rect
           x="22"
           y="6"
           width="4"
           height="4"
           id="rect3" />
        <rect
           x="22"
           y="38"
           width="4"
           height="4"
           id="rect4" />
      </g>
    </g>
  </g>
</svg>
